"id","code","name"
"tour_travel.list00","EGT","Escorted Goup Tour"
"tour_travel.list01","SPT","Speciality Tour"
"tour_travel.list02","CST","Cost Saver Tour"
"tour_travel.list03","HMT","Honeymoon Package"
"tour_travel.list04","WLT","Wildlife Special Tour"
"__export__.tour_package_type_6","CNT","China Tour"
"__export__.tour_package_type_7","EGT1","Escorted Goup Tour1"
"__export__.tour_package_type_9","MEX","Mexico Tours"
"__export__.tour_package_type_11","MEX","Mexico Group Tour"
"__export__.tour_package_type_12","SLP","Rafting"
"__export__.tour_package_type_15","PHOTO","Photography Safari"
"__export__.tour_package_type_16","jpn","Japan"
"__export__.tour_package_type_18","gra","Grapes"
"__export__.tour_package_type_21","BIZ","Business Travel"
"__export__.tour_package_type_23","sin23","singapore"
"__export__.tour_package_type_24","fff","jfdjdf"
"__export__.tour_package_type_25","HGT","Hurgada Tours"
