"id","name","before_pay_date_perc","before_book_date_perc"
"tour_travel.list40","10% Booking Amt","90","10"
"tour_travel.list41","20% Booking Amt","80","20"
"tour_travel.list42","30% Booking Amt","70","30"
"__export__.tour_payment_policy_4","25% Descuento","75","25"
"__export__.tour_payment_policy_5","40% Reserva","60","40"
"__export__.tour_payment_policy_7","10,000 บาท","100",""
"__export__.tour_payment_policy_8","1000","50","50"
"__export__.tour_payment_policy_9","","80","20"
