"id","deduction_percentage","max_limit","name"
"__export__.tour_deduction_policy_1","50.0","20","50"
"__export__.tour_deduction_policy_2","50.0","10","5"
"__export__.tour_deduction_policy_3","30.0","20","10"
"__export__.tour_deduction_policy_4","70.0","45","15"
"__export__.tour_deduction_policy_5","","",""
