"id","name","code"
"tour_travel.transport_car1","Jet Airways","JET"
"tour_travel.transport_car2","Air India","AI"
"tour_travel.transport_car3","Singapore Airlines","SA"
"tour_travel.transport_car4","Qatar Airways","QA"
"__export__.transport_carrier_5","Testtours","111"
"__export__.transport_carrier_6","Caravane ",""
"__export__.transport_carrier_7","alpha bus","alp"
"__export__.transport_carrier_8","KLM",""
"__export__.transport_carrier_9","KLM","KLM"
"__export__.transport_carrier_10","sn brussels","SN"
"__export__.transport_carrier_11","ماهان","BX10"
